<?xml version="1.0" encoding="utf-8"?>
<!-- Generator: Adobe Illustrator 19.0.0, SVG Export Plug-In . SVG Version: 6.00 Build 0)  -->
<svg version="1.1" id="Layer_1" xmlns="http://www.w3.org/2000/svg" xmlns:xlink="http://www.w3.org/1999/xlink" x="0px" y="0px"
	 viewBox="0 0 40 40" enable-background="new 0 0 40 40" xml:space="preserve">
<g>
	<rect id="XMLID_2_" fill="#FFFFFF" width="40" height="40"/>
	<polyline id="XMLID_1_" fill="none" stroke="#000000" stroke-miterlimit="10" points="15,10 25,20 15,30 	"/>
</g>
</svg>
