<?xml version="1.0" encoding="utf-8"?>
<!-- Generator: Adobe Illustrator 19.0.0, SVG Export Plug-In . SVG Version: 6.00 Build 0)  -->
<svg version="1.1" id="Layer_1" xmlns="http://www.w3.org/2000/svg" xmlns:xlink="http://www.w3.org/1999/xlink" x="0px" y="0px"
	 viewBox="0 0 28 28" enable-background="new 0 0 28 28" xml:space="preserve">
<path opacity="0.54" d="M11.154,27.429V15.235h-4.11v-4.978h4.11V6.076c0-3.04,2.465-5.505,5.505-5.505h4.296v4.476h-3.074
	c-0.966,0-1.749,0.783-1.749,1.749v3.46h4.746l-0.656,4.978h-4.09v12.194L11.154,27.429L11.154,27.429z"/>
</svg>
