<?xml version="1.0" encoding="utf-8"?>
<!-- Generator: Adobe Illustrator 19.0.0, SVG Export Plug-In . SVG Version: 6.00 Build 0)  -->
<svg version="1.1" id="Layer_1" xmlns="http://www.w3.org/2000/svg" xmlns:xlink="http://www.w3.org/1999/xlink" x="0px" y="0px"
	 viewBox="0 0 45 35" enable-background="new 0 0 45 35" xml:space="preserve">
<g>
	<path d="M19.923,26.585c0,2.581-0.867,4.628-2.6,6.141C15.59,34.243,13.397,35,10.743,35c-3.122,0-5.692-1.01-7.714-3.03
		C1.01,29.951,0,26.979,0,23.053c0-3.701,0.55-6.871,1.651-9.507s2.43-4.882,3.996-6.73c1.562-1.852,3.185-3.338,4.866-4.461
		C12.192,1.236,13.668,0.448,14.944,0l4.293,5.888c-2.544,1.236-4.593,2.889-6.154,4.964c-1.562,2.078-2.339,4.687-2.339,7.826
		c0.461-0.11,1.094-0.168,1.904-0.168c2.308,0,4.099,0.784,5.371,2.355C19.287,22.436,19.923,24.343,19.923,26.585z M45,26.585
		c0,2.581-0.867,4.628-2.602,6.141C40.665,34.243,38.473,35,35.819,35c-3.12,0-5.692-1.01-7.712-3.03
		c-2.021-2.02-3.03-4.991-3.03-8.918c0-3.701,0.549-6.871,1.649-9.507c1.101-2.636,2.432-4.882,3.996-6.73
		c1.562-1.852,3.187-3.338,4.866-4.461C37.269,1.236,38.743,0.448,40.019,0l4.295,5.888c-2.546,1.236-4.595,2.889-6.154,4.964
		c-1.562,2.078-2.341,4.687-2.341,7.826c0.461-0.11,1.095-0.168,1.906-0.168c2.308,0,4.097,0.784,5.369,2.355
		C44.364,22.436,45,24.343,45,26.585z"/>
</g>
</svg>
